{
  "association": {
    "announcement": "https://www.journal-officiel.gouv.fr/associations/detail-annonce/associations_b/20170043/1553",
    "pdf": "https://compte.journal-officiel.gouv.fr/pages/verification_pdf/?source=jo_associations&q=id:201700431553"
  },
  "skills": [
    "thief-512.png",
    "Global_Recruitment-512.png",
    "Risk_Evaluation-512.png",
    "6-512.png",
    "Conference_presentation_visual_screen_tripod.png",
    "save_money-512.png"
  ]
}
