{
  "sigsegv1": {
    "gold": [
      {
        "name": "Sogeti",
        "link": "https://www.fr.sogeti.com/",
        "logo": "sogeti.png"
      }
    ],
    "silver": [
      {
        "name": "Netxp",
        "link": "https://www.netxp.fr/",
        "logo": "netxp.jpg"
      },
      {
        "name": "Devoteam",
        "link": "https://www.devoteam.com/",
        "logo": "devoteam.jpg"
      }
    ],
    "bronze": [
      {
        "name": "Encelis",
        "link": "http://www.encelis.fr/",
        "logo": "encelis.png"
      },
      {
        "name": "Yogosha",
        "link": "https://www.yogosha.com/",
        "logo": "yogosha.png"
      },
      {
        "name": "AlgoSecure",
        "link": "https://www.algosecure.fr/",
        "logo": "algosecure.png"
      },
      {
        "name": "Wavestone",
        "link": "https://www.wavestone.com/",
        "logo": "wavestone.jpg"
      }
    ],
    "partner": [
      {
        "name": "42",
        "link": "http://www.42.fr/",
        "logo": "42.png"
      },
      {
        "name": "NC",
        "link": "https://www.newbiecontest.org/",
        "logo": "newbiecontest.png"
      },
      {
        "name": "Synacktiv",
        "link": "https://www.synacktiv.com/fr/",
        "logo": "synacktiv.png"
      }
    ]
  },
  "sigsegv2": {
    "silver":  [
      {
        "name": "Yogosha",
        "link": "https://yogosha.com/",
        "logo": "yogosha.png"
      },
      {
        "name": "Orange Cyberdefense",
        "link": "https://cyberdefense.orange.com/",
        "logo": "ocd.png"
      }
    ],
    "bronze": [
      {
        "name": "HS2",
        "link": "https://www.hs2.fr/",
        "logo": "hs2.png"
      },
      {
        "name": "RandoriSec",
        "link": "https://randorisec.fr/",
        "logo": "randorisec.png"
      },
      {
        "name": "Newbie Contest",
        "link": "https://newbiecontest.org/",
        "logo": "newbiecontest.png"
      },
      {
        "name": "ARMATURE Technologies",
        "link": "https://www.armaturetech.com/",
        "logo": "armature.png"
      },
      {
        "name": "Smile",
        "link": "https://www.smile.eu/",
        "logo": "smile.png"
      },
      {
        "name": "PatrOwl",
        "link": "https://patrowl.io/",
        "logo": "patrowl.png"
      },
      {
        "name": "Login Sécurité",
        "link": "https://www.login-securite.com/",
        "logo": "login_sec.png"
      },
      {
        "name": "Sirk390",
        "link": "https://www.newbiecontest.org/index.php?page=info_membre&id=3118",
        "logo": "sirk390.png"
      }
    ],
    "partner": [
      {
        "name": "hardwear.io",
        "link": "https://hardwear.io/",
        "logo": "hardwear.jpg"
      },
      {
        "name": "NULLCON",
        "link": "https://nullcon.net/",
        "logo": "nullcon.jpg"
      },
      {
        "name": "HZV",
        "link": "https://hackerzvoice.net/",
        "logo": "hzv.png"
      },
      {
        "name": "MISC",
        "link": "https://connect.ed-diamond.com/MISC",
        "logo": "misc.png"
      },
      {
        "name": "kali-linux.fr",
        "link": "https://kali-linux.fr/",
        "logo": "kali-linux_FR.png"
      }
    ]
  }
}
